{
  "api": "0",
  "authors": [
    "Patrick Spek <p.spek@tyil.work>"
  ],
  "depends": [
    
  ],
  "description": "Convenience functions for working with the XDG Base Directory Specification",
  "license": "AGPL-3.0",
  "meta-version": 0,
  "name": "IO::Path::XDG",
  "perl": "6.d",
  "provides": {
    "IO::Path::XDG": "lib/IO/Path/XDG.pm6"
  },
  "resources": [
    
  ],
  "source-url": "https://gitlab.com/tyil/perl6-io-path-xdg",
  "tags": [
    
  ],
  "version": "0.1.0"
}